00_all
…
data_dir <- "../data/"
raw_dir <- "../data/_raw/"

GEODataTable from raw/raw_expression_data.rds

Loading in the data

Expression data of patients with different genes. (patient) Samples are stored as columns and gene names as rows, which we would like to flip, to align with tidy standards. But first we load the data from _raw/

exprs_geodf <- Table(read_rds(file.path(data_dir,"01_load_expression_data.rds")))
exprs_geodf <- as_tibble(exprs_geodf)
exprs_geodf

# A tibble: 44,290 × 204
   ID_REF IDENTIFIER GSM282855 GSM282856 GSM282857 GSM282858 GSM282859 GSM282860
    <int> <chr>          <dbl>     <dbl>     <dbl>     <dbl>     <dbl>     <dbl>
 1      1 BrightCor…   NA        NA        NA        NA        NA        NA     
 2      2 NegativeC…   NA        NA        NA        NA        NA        NA     
 3      3 A_23_P803…    0.0387   -0.109    -0.0443   -0.0334   -0.0436    0.0268
 4      4 APBA2        -0.133    -0.109    -0.136    -0.119    -0.164    -0.185 
 5      5 MAP3K6       -0.0422    0.0422    0.0180    0.0635    0.0720    0.0587
 6      6 ZNF121       -0.212    -0.240    -0.339    -0.314    -0.436    -0.0504
 7      7 Pro25G       NA        NA        NA        NA        NA        NA     
 8      8 RET          NA        -0.115    -0.442    -0.250    -0.440    -0.467 
 9      9 BX094364      0.0346    0.0149   -0.0541   -0.0582   -0.0832   -0.0951
10     10 C12orf56      0.0286   -0.0422    0.0311   -0.0577   -0.0826   -0.0948
# ℹ 44,280 more rows
# ℹ 196 more variables: GSM282861 <dbl>, GSM282862 <dbl>, GSM282863 <dbl>,
#   GSM282864 <dbl>, GSM282865 <dbl>, GSM282866 <dbl>, GSM282867 <dbl>,
#   GSM282868 <dbl>, GSM282869 <dbl>, GSM282870 <dbl>, GSM282871 <dbl>,
#   GSM282872 <dbl>, GSM282904 <dbl>, GSM282910 <dbl>, GSM282913 <dbl>,
#   GSM282915 <dbl>, GSM282921 <dbl>, GSM282927 <dbl>, GSM282873 <dbl>,
#   GSM282874 <dbl>, GSM282875 <dbl>, GSM282905 <dbl>, GSM282914 <dbl>, …
…
dplyr::count(fully_na)

# A tibble: 1 × 1
      n
  <int>
1  3299

There are 3299 identifiers with completely empty rows in the expression dataset, given in the list “fully_na”. We cannot use the gene column name: “IDENTIFIER”, as it contains duplicates. Lets exclude fully_na indexes from the dataset:

exprs_df <- exprs_geodf |> 
  anti_join(fully_na, by = "ID_REF")

exprs_df

# A tibble: 40,991 × 204
   ID_REF IDENTIFIER GSM282855 GSM282856 GSM282857 GSM282858 GSM282859 GSM282860
    <int> <chr>          <dbl>     <dbl>     <dbl>     <dbl>     <dbl>     <dbl>
 1      3 A_23_P803…    0.0387   -0.109    -0.0443   -0.0334   -0.0436    0.0268
 2      4 APBA2        -0.133    -0.109    -0.136    -0.119    -0.164    -0.185 
 3      5 MAP3K6       -0.0422    0.0422    0.0180    0.0635    0.0720    0.0587
 4      6 ZNF121       -0.212    -0.240    -0.339    -0.314    -0.436    -0.0504
 5      8 RET          NA        -0.115    -0.442    -0.250    -0.440    -0.467 
 6      9 BX094364      0.0346    0.0149   -0.0541   -0.0582   -0.0832   -0.0951
 7     10 C12orf56      0.0286   -0.0422    0.0311   -0.0577   -0.0826   -0.0948
 8     12 MBD2          0.151     0.211     0.196     0.216     0.235     0.220 
 9     13 LIFR-AS1     -0.268    -0.479    -0.323    -0.343    -0.459    -0.434 
10     15 CMYA5        NA        -0.0329   -0.275     0.0600   -0.341    -0.289 
# ℹ 40,981 more rows
# ℹ 196 more variables: GSM282861 <dbl>, GSM282862 <dbl>, GSM282863 <dbl>,
#   GSM282864 <dbl>, GSM282865 <dbl>, GSM282866 <dbl>, GSM282867 <dbl>,
#   GSM282868 <dbl>, GSM282869 <dbl>, GSM282870 <dbl>, GSM282871 <dbl>,
#   GSM282872 <dbl>, GSM282904 <dbl>, GSM282910 <dbl>, GSM282913 <dbl>,
#   GSM282915 <dbl>, GSM282921 <dbl>, GSM282927 <dbl>, GSM282873 <dbl>,
#   GSM282874 <dbl>, GSM282875 <dbl>, GSM282905 <dbl>, GSM282914 <dbl>, …
…
  #Unpacking ID_REF as columns
  pivot_wider(
    names_from = ID_REF,
    values_from = Value
  )

exprs_df

# A tibble: 202 × 40,992
   geo_accession      `3`     `4`     `5`     `6`     `8`     `9`    `10`  `12`
   <chr>            <dbl>   <dbl>   <dbl>   <dbl>   <dbl>   <dbl>   <dbl> <dbl>
 1 GSM282855      0.0387  -0.133  -0.0422 -0.212  NA       0.0346  0.0286 0.151
 2 GSM282856     -0.109   -0.109   0.0422 -0.240  -0.115   0.0149 -0.0422 0.211
 3 GSM282857     -0.0443  -0.136   0.0180 -0.339  -0.442  -0.0541  0.0311 0.196
 4 GSM282858     -0.0334  -0.119   0.0635 -0.314  -0.250  -0.0582 -0.0577 0.216
 5 GSM282859     -0.0436  -0.164   0.0720 -0.436  -0.440  -0.0832 -0.0826 0.235
 6 GSM282860      0.0268  -0.185   0.0587 -0.0504 -0.467  -0.0951 -0.0948 0.220
 7 GSM282861     -0.0448  -0.0768  0.292  -0.318  -0.141   0.0369  0.0377 0.190
 8 GSM282862     -0.0588  -0.184   0.101  -0.286  -0.113  -0.0992 -0.0966 0.275
 9 GSM282863     -0.0428  -0.108   0.125  -0.0161 -0.430   0.0272 -0.0273 0.281
10 GSM282864     -0.00537 -0.186   0.143  -0.274  -0.0461  0.0356  0.0444 0.108
# ℹ 192 more rows
# ℹ 40,983 more variables: `13` <dbl>, `15` <dbl>, `16` <dbl>, `17` <dbl>,
#   `18` <dbl>, `19` <dbl>, `22` <dbl>, `24` <dbl>, `25` <dbl>, `26` <dbl>,
#   `27` <dbl>, `29` <dbl>, `30` <dbl>, `31` <dbl>, `32` <dbl>, `33` <dbl>,
#   `34` <dbl>, `36` <dbl>, `37` <dbl>, `38` <dbl>, `39` <dbl>, `40` <dbl>,
#   `41` <dbl>, `43` <dbl>, `45` <dbl>, `46` <dbl>, `47` <dbl>, `48` <dbl>,
#   `50` <dbl>, `51` <dbl>, `52` <dbl>, `53` <dbl>, `54` <dbl>, `55` <dbl>, …
…
gse11223 <- read_rds(file = file.path(data_dir,"01_load_meta_data.rds")) 

phenodata <- pData(phenoData(gse11223[1]))

phenodata |>
  summarise(across(everything(), ~ n_distinct(.x, na.rm = TRUE))) |>
  pivot_longer(
    everything(),
    names_to = "col",
    values_to = "n_levels"
  ) |>
  filter(n_levels <= 1)

# A tibble: 34 × 2
   col                  n_levels
   <chr>                   <int>
 1 status                      1
 2 submission_date             1
 3 last_update_date            1
 4 type                        1
 5 channel_count               1
 6 organism_ch1                1
 7 molecule_ch1                1
 8 extract_protocol_ch1        1
 9 label_ch1                   1
10 label_protocol_ch1          1
# ℹ 24 more rows
…
phenodata

# A tibble: 202 × 59
   title       geo_accession source_name_ch1 supplementary_file relation patient
   <chr>       <chr>         <chr>           <chr>              <chr>    <chr>  
 1 5192 Norma… GSM282855     Normal Uninfla… ftp://ftp.ncbi.nl… Reanaly… 101    
 2 5193 Norma… GSM282856     Normal Uninfla… ftp://ftp.ncbi.nl… Reanaly… 102    
 3 5194 Norma… GSM282857     Normal Uninfla… ftp://ftp.ncbi.nl… Reanaly… 103    
 4 5195 Norma… GSM282858     Normal Uninfla… ftp://ftp.ncbi.nl… Reanaly… 105    
 5 5196 Norma… GSM282859     Normal Uninfla… ftp://ftp.ncbi.nl… Reanaly… 105    
 6 5197 Norma… GSM282860     Normal Uninfla… ftp://ftp.ncbi.nl… Reanaly… 106    
 7 5198 Norma… GSM282861     Normal Uninfla… ftp://ftp.ncbi.nl… Reanaly… 108    
 8 5199 Norma… GSM282862     Normal Uninfla… ftp://ftp.ncbi.nl… Reanaly… 104    
 9 5200 Norma… GSM282863     Normal Uninfla… ftp://ftp.ncbi.nl… Reanaly… 107    
10 5201 Norma… GSM282864     Normal Uninfla… ftp://ftp.ncbi.nl… Reanaly… 109    
# ℹ 192 more rows
# ℹ 53 more variables: current_medication <chr>, birth_date <chr>,
#   ethnicity <chr>, symptoms_onset_date <chr>, diagnosis_date <chr>,
#   joint_problems <chr>, uc_flare_up <chr>, family_history <chr>,
#   aza_treated <chr>, aza_tolerant <chr>, aza_at_present <chr>,
#   procedure_date <chr>, indictation_for_procedure <chr>, ucss <chr>,
#   calprotectin <chr>, esr <chr>, crp <chr>, hb <chr>, wcc <chr>, …
…
